Tuning text models
…
## -- Conflicts ----------------------------------------- tidymodels_conflicts() --
## x purrr::discard() masks scales::discard()
## x dplyr::filter()  masks stats::filter()
## x dplyr::lag()     masks stats::lag()
## x recipes::step()  masks stats::step()
## * Use tidymodels_prefer() to resolve common conflicts.

data("small_fine_foods")

training_data

## # A tibble: 4,000 x 3
##    product    review                                                       score
##    <chr>      <chr>                                                        <fct>
##  1 B000J0LSBG "this stuff is  not stuffing  its  not good at all  save yo~ other
##  2 B000EYLDYE "I absolutely LOVE this dried fruit.  LOVE IT.  Whenever I ~ great
##  3 B0026LIO9A "GREAT DEAL, CONVENIENT TOO.  Much cheaper than WalMart and~ great
##  4 B00473P8SK "Great flavor, we go through a ton of this sauce! I discove~ great
##  5 B001SAWTNM "This is excellent salsa/hot sauce, but you can get it for ~ great
##  6 B000FAG90U "Again, this is the best dogfood out there.  One suggestion~ great
##  7 B006BXTCEK "The box I received was filled with teas, hot chocolates, a~ other
##  8 B002GWH5OY "This is delicious coffee which compares favorably with muc~ great
##  9 B003R0MFYY "Don't let these little tiny cans fool you.  They pack a lo~ great
## 10 B001EO5ZXI "One of the nicest, smoothest cup of chai I've made. Nice m~ great
## # ... with 3,990 more rows
…
    recipe .

library(textrecipes)

recipe(score ~ product + review, data = training_data) %>% 
  # Do not use the product ID as a predictor
  update_role(product, new_role = "id") %>% 
  # Make a copy of the raw text
  step_mutate(review_raw = review) %>% 
  prep() %>% juice()

## # A tibble: 4,000 x 4
##    product    review                        score review_raw                    
##    <fct>      <fct>                         <fct> <fct>                         
##  1 B000J0LSBG "this stuff is  not stuffing~ other "this stuff is  not stuffing ~
##  2 B000EYLDYE "I absolutely LOVE this drie~ great "I absolutely LOVE this dried~
##  3 B0026LIO9A "GREAT DEAL, CONVENIENT TOO.~ great "GREAT DEAL, CONVENIENT TOO. ~
##  4 B00473P8SK "Great flavor, we go through~ great "Great flavor, we go through ~
##  5 B001SAWTNM "This is excellent salsa/hot~ great "This is excellent salsa/hot ~
##  6 B000FAG90U "Again, this is the best dog~ great "Again, this is the best dogf~
##  7 B006BXTCEK "The box I received was fill~ other "The box I received was fille~
##  8 B002GWH5OY "This is delicious coffee wh~ great "This is delicious coffee whi~
##  9 B003R0MFYY "Don't let these little tiny~ great "Don't let these little tiny ~
## 10 B001EO5ZXI "One of the nicest, smoothes~ great "One of the nicest, smoothest~
## # ... with 3,990 more rows

recipe(score ~ product + review, data = training_data) %>% 
  # Do not use the product ID as a predictor
  update_role(product, new_role = "id") %>% 
  # Make a copy of the raw text
  step_mutate(review_raw = review) %>% 
  # Compute the initial features. This removes the 'review_raw' column
  step_textfeature(review_raw) %>% 
  prep() %>% juice()

## # A tibble: 4,000 x 30
##    product    review   score textfeature_revi~ textfeature_rev~ textfeature_rev~
##    <fct>      <fct>    <fct>             <int>            <int>            <int>
##  1 B000J0LSBG "this s~ other                13               12               50
##  2 B000EYLDYE "I abso~ great                93               72              410
##  3 B0026LIO9A "GREAT ~ great               102               88              516
##  4 B00473P8SK "Great ~ great                36               33              156
##  5 B001SAWTNM "This i~ great                18               18               77
##  6 B000FAG90U "Again,~ great                27               24              117
##  7 B006BXTCEK "The bo~ other                81               71              413
##  8 B002GWH5OY "This i~ great                51               47              260
##  9 B003R0MFYY "Don't ~ great                55               51              232
## 10 B001EO5ZXI "One of~ great                44               36              169
## # ... with 3,990 more rows, and 24 more variables:
## #   textfeature_review_raw_n_uq_charS <int>,
## #   textfeature_review_raw_n_digits <int>,
## #   textfeature_review_raw_n_hashtags <int>,
## #   textfeature_review_raw_n_uq_hashtags <int>,
## #   textfeature_review_raw_n_mentions <int>,
## #   textfeature_review_raw_n_uq_mentions <int>, ...
recipe(score ~ product + review, data = training_data) %>% 
  # Do not use the product ID as a predictor
  update_role(product, new_role = "id") %>% 
  # Make a copy of the raw text
  step_mutate(review_raw = review) %>% 
  # Compute the initial features. This removes the 'review_raw' column
  step_textfeature(review_raw) %>% 
  # Make the feature names shorter
  step_rename_at(
    starts_with("textfeature_"),
    fn = ~ gsub("textfeature_review_raw_", "", .)
  ) %>% 
  prep() %>% juice()

## # A tibble: 4,000 x 30
##    product    review        score n_words n_uq_words n_charS n_uq_charS n_digits
##    <fct>      <fct>         <fct>   <int>      <int>   <int>      <int>    <int>
##  1 B000J0LSBG "this stuff ~ other      13         12      50         17        0
##  2 B000EYLDYE "I absolutel~ great      93         72     410         38        0
##  3 B0026LIO9A "GREAT DEAL,~ great     102         88     516         49        3
##  4 B00473P8SK "Great flavo~ great      36         33     156         30        0
##  5 B001SAWTNM "This is exc~ great      18         18      77         28        4
##  6 B000FAG90U "Again, this~ great      27         24     117         28        0
##  7 B006BXTCEK "The box I r~ other      81         71     413         44        1
##  8 B002GWH5OY "This is del~ great      51         47     260         33        0
##  9 B003R0MFYY "Don't let t~ great      55         51     232         32        0
## 10 B001EO5ZXI "One of the ~ great      44         36     169         30        0
## # ... with 3,990 more rows, and 22 more variables: n_hashtags <int>,
## #   n_uq_hashtags <int>, n_mentions <int>, n_uq_mentions <int>, n_commas <int>,
## #   n_periods <int>, n_exclaims <int>, n_extraspaces <int>, n_caps <int>,
## #   n_lowers <int>, n_urls <int>, n_uq_urls <int>, n_nonasciis <int>,
## #   n_puncts <int>, politeness <dbl>, first_person <int>, first_personp <int>,
## #   second_person <int>, second_personp <int>, third_person <int>, to_be <int>,
## #   prepositions <int>
…
  # Do not use the product ID as a predictor
  update_role(product, new_role = "id") %>% 
  # Make a copy of the raw text
  step_mutate(review_raw = review) %>% 
  # Compute the initial features. This removes the 'review_raw' column
  step_textfeature(review_raw) %>% 
  # Make the feature names shorter
  step_rename_at(
    starts_with("textfeature_"),
    fn = ~ gsub("textfeature_review_raw_", "", .)
  ) %>% 
  step_tokenize(review) %>% 
  prep() %>% juice()

## # A tibble: 4,000 x 30
##    product          review score n_words n_uq_words n_charS n_uq_charS n_digits
##    <fct>         <tknlist> <fct>   <int>      <int>   <int>      <int>    <int>
##  1 B000J0LSBG  [13 tokens] other      13         12      50         17        0
##  2 B000EYLDYE  [94 tokens] great      93         72     410         38        0
##  3 B0026LIO9A [104 tokens] great     102         88     516         49        3
##  4 B00473P8SK  [36 tokens] great      36         33     156         30        0
##  5 B001SAWTNM  [19 tokens] great      18         18      77         28        4
##  6 B000FAG90U  [27 tokens] great      27         24     117         28        0
##  7 B006BXTCEK  [83 tokens] other      81         71     413         44        1
##  8 B002GWH5OY  [53 tokens] great      51         47     260         33        0
##  9 B003R0MFYY  [55 tokens] great      55         51     232         32        0
## 10 B001EO5ZXI  [45 tokens] great      44         36     169         30        0
## # ... with 3,990 more rows, and 22 more variables: n_hashtags <int>,
## #   n_uq_hashtags <int>, n_mentions <int>, n_uq_mentions <int>, n_commas <int>,
## #   n_periods <int>, n_exclaims <int>, n_extraspaces <int>, n_caps <int>,
## #   n_lowers <int>, n_urls <int>, n_uq_urls <int>, n_nonasciis <int>,
## #   n_puncts <int>, politeness <dbl>, first_person <int>, first_personp <int>,
## #   second_person <int>, second_personp <int>, third_person <int>, to_be <int>,
## #   prepositions <int>
…
  update_role(product, new_role = "id") %>% 
  # Make a copy of the raw text
  step_mutate(review_raw = review) %>% 
  # Compute the initial features. This removes the 'review_raw' column
  step_textfeature(review_raw) %>% 
  # Make the feature names shorter
  step_rename_at(
    starts_with("textfeature_"),
    fn = ~ gsub("textfeature_review_raw_", "", .)
  ) %>% 
  step_tokenize(review) %>% 
  step_stopwords(review) %>% 
  prep() %>% juice()

## # A tibble: 4,000 x 30
##    product         review score n_words n_uq_words n_charS n_uq_charS n_digits
##    <fct>        <tknlist> <fct>   <int>      <int>   <int>      <int>    <int>
##  1 B000J0LSBG  [5 tokens] other      13         12      50         17        0
##  2 B000EYLDYE [54 tokens] great      93         72     410         38        0
##  3 B0026LIO9A [66 tokens] great     102         88     516         49        3
##  4 B00473P8SK [20 tokens] great      36         33     156         30        0
##  5 B001SAWTNM [11 tokens] great      18         18      77         28        4
##  6 B000FAG90U [12 tokens] great      27         24     117         28        0
##  7 B006BXTCEK [52 tokens] other      81         71     413         44        1
##  8 B002GWH5OY [30 tokens] great      51         47     260         33        0
##  9 B003R0MFYY [31 tokens] great      55         51     232         32        0
## 10 B001EO5ZXI [24 tokens] great      44         36     169         30        0
## # ... with 3,990 more rows, and 22 more variables: n_hashtags <int>,
## #   n_uq_hashtags <int>, n_mentions <int>, n_uq_mentions <int>, n_commas <int>,
## #   n_periods <int>, n_exclaims <int>, n_extraspaces <int>, n_caps <int>,
## #   n_lowers <int>, n_urls <int>, n_uq_urls <int>, n_nonasciis <int>,
## #   n_puncts <int>, politeness <dbl>, first_person <int>, first_personp <int>,
## #   second_person <int>, second_personp <int>, third_person <int>, to_be <int>,
## #   prepositions <int>
…
  # Make a copy of the raw text
  step_mutate(review_raw = review) %>% 
  # Compute the initial features. This removes the 'review_raw' column
  step_textfeature(review_raw) %>% 
  # Make the feature names shorter
  step_rename_at(
    starts_with("textfeature_"),
    fn = ~ gsub("textfeature_review_raw_", "", .)
  ) %>% 
  step_tokenize(review) %>% 
  step_stopwords(review) %>% 
  step_stem(review) %>% 
  prep() %>% juice() # %>% pull(review)

## # A tibble: 4,000 x 30
##    product         review score n_words n_uq_words n_charS n_uq_charS n_digits
##    <fct>        <tknlist> <fct>   <int>      <int>   <int>      <int>    <int>
##  1 B000J0LSBG  [5 tokens] other      13         12      50         17        0
##  2 B000EYLDYE [54 tokens] great      93         72     410         38        0
##  3 B0026LIO9A [66 tokens] great     102         88     516         49        3
##  4 B00473P8SK [20 tokens] great      36         33     156         30        0
##  5 B001SAWTNM [11 tokens] great      18         18      77         28        4
##  6 B000FAG90U [12 tokens] great      27         24     117         28        0
##  7 B006BXTCEK [52 tokens] other      81         71     413         44        1
##  8 B002GWH5OY [30 tokens] great      51         47     260         33        0
##  9 B003R0MFYY [31 tokens] great      55         51     232         32        0
## 10 B001EO5ZXI [24 tokens] great      44         36     169         30        0
## # ... with 3,990 more rows, and 22 more variables: n_hashtags <int>,
## #   n_uq_hashtags <int>, n_mentions <int>, n_uq_mentions <int>, n_commas <int>,
## #   n_periods <int>, n_exclaims <int>, n_extraspaces <int>, n_caps <int>,
## #   n_lowers <int>, n_urls <int>, n_uq_urls <int>, n_nonasciis <int>,
## #   n_puncts <int>, politeness <dbl>, first_person <int>, first_personp <int>,
## #   second_person <int>, second_personp <int>, third_person <int>, to_be <int>,
## #   prepositions <int>
…
recipe(score ~ product + review, data = training_data) %>% 
  update_role(product, new_role = "id") %>% 
  step_mutate(review_raw = review) %>% 
  step_textfeature(review_raw) %>% 
  step_rename_at(
    starts_with("textfeature_"),
    fn = ~ gsub("textfeature_review_raw_", "", .)
  ) %>% 
  step_tokenize(review) %>% 
  step_stopwords(review) %>% 
  step_stem(review) %>% 
  step_texthash('review') %>% 
  prep() %>% juice() # %>% pull(review)

## # A tibble: 4,000 x 1,053
##    review_hash0001 review_hash0002 review_hash0003 review_hash0004
##              <dbl>           <dbl>           <dbl>           <dbl>
##  1               0               0               0               0
##  2               0               0               0               0
##  3               0               0               0               1
##  4               0               0               0               0
##  5               0               0               0               0
##  6               0               0               0               0
##  7               0              -1               0               0
##  8               0               0               0               0
##  9               0               0               0               0
## 10               0               0               0               0
## # ... with 3,990 more rows, and 1,049 more variables: review_hash0005 <dbl>,
## #   review_hash0006 <dbl>, review_hash0007 <dbl>, review_hash0008 <dbl>,
## #   review_hash0009 <dbl>, review_hash0010 <dbl>, review_hash0011 <dbl>,
## #   review_hash0012 <dbl>, review_hash0013 <dbl>, review_hash0014 <dbl>,
## #   review_hash0015 <dbl>, review_hash0016 <dbl>, review_hash0017 <dbl>,
## #   review_hash0018 <dbl>, review_hash0019 <dbl>, review_hash0020 <dbl>,
## #   review_hash0021 <dbl>, review_hash0022 <dbl>, review_hash0023 <dbl>, ...
…
  update_role(product, new_role = "id") %>% 
  step_mutate(review_raw = review) %>% 
  step_textfeature(review_raw) %>% 
  step_rename_at(
    starts_with("textfeature_"),
    fn = ~ gsub("textfeature_review_raw_", "", .)
  ) %>% 
  step_tokenize(review) %>% 
  step_stopwords(review) %>% 
  step_stem(review) %>% 
  step_texthash('review') %>% 
  step_rename_at(starts_with("review_hash"), fn = ~ gsub("review_","", .)) %>% 
  prep() %>% juice() # %>% pull(review)

## # A tibble: 4,000 x 1,053
##    hash0001 hash0002 hash0003 hash0004 hash0005 hash0006 hash0007 hash0008
##       <dbl>    <dbl>    <dbl>    <dbl>    <dbl>    <dbl>    <dbl>    <dbl>
##  1        0        0        0        0        0        0        0        0
##  2        0        0        0        0        1        0        0        0
##  3        0        0        0        1        0        0        0        0
##  4        0        0        0        0        0        0        0        0
##  5        0        0        0        0        0        0        0        0
##  6        0        0        0        0        0        0        0        0
##  7        0       -1        0        0        0        0       -1        0
##  8        0        0        0        0        0        0        0        0
##  9        0        0        0        0        0        0        0        0
## 10        0        0        0        0        0        0        0        0
## # ... with 3,990 more rows, and 1,045 more variables: hash0009 <dbl>,
## #   hash0010 <dbl>, hash0011 <dbl>, hash0012 <dbl>, hash0013 <dbl>,
## #   hash0014 <dbl>, hash0015 <dbl>, hash0016 <dbl>, hash0017 <dbl>,
## #   hash0018 <dbl>, hash0019 <dbl>, hash0020 <dbl>, hash0021 <dbl>,
## #   hash0022 <dbl>, hash0023 <dbl>, hash0024 <dbl>, hash0025 <dbl>,
## #   hash0026 <dbl>, hash0027 <dbl>, hash0028 <dbl>, hash0029 <dbl>,
## #   hash0030 <dbl>, hash0031 <dbl>, hash0032 <dbl>, hash0033 <dbl>, ...
…
  step_mutate(review_raw = review) %>% 
  step_textfeature(review_raw) %>% 
  step_rename_at(
    starts_with("textfeature_"),
    fn = ~ gsub("textfeature_review_raw_", "", .)
  ) %>% 
  step_tokenize(review) %>% 
  step_stopwords(review) %>% 
  step_stem(review) %>% 
  step_texthash('review') %>% 
  step_rename_at(starts_with("review_hash"), fn = ~ gsub("review_","", .)) %>% 
  step_mutate_at(starts_with("hash"), fn = binary_hash) %>% 
  prep() %>% juice() # %>% pull(review)

## # A tibble: 4,000 x 1,053
##    hash0001 hash0002 hash0003 hash0004 hash0005 hash0006 hash0007 hash0008
##       <dbl>    <dbl>    <dbl>    <dbl>    <dbl>    <dbl>    <dbl>    <dbl>
##  1        0        0        0        0        0        0        0        0
##  2        0        0        0        0        1        0        0        0
##  3        0        0        0        1        0        0        0        0
##  4        0        0        0        0        0        0        0        0
##  5        0        0        0        0        0        0        0        0
##  6        0        0        0        0        0        0        0        0
##  7        0       -1        0        0        0        0       -1        0
##  8        0        0        0        0        0        0        0        0
##  9        0        0        0        0        0        0        0        0
## 10        0        0        0        0        0        0        0        0
## # ... with 3,990 more rows, and 1,045 more variables: hash0009 <dbl>,
## #   hash0010 <dbl>, hash0011 <dbl>, hash0012 <dbl>, hash0013 <dbl>,
## #   hash0014 <dbl>, hash0015 <dbl>, hash0016 <dbl>, hash0017 <dbl>,
## #   hash0018 <dbl>, hash0019 <dbl>, hash0020 <dbl>, hash0021 <dbl>,
## #   hash0022 <dbl>, hash0023 <dbl>, hash0024 <dbl>, hash0025 <dbl>,
## #   hash0026 <dbl>, hash0027 <dbl>, hash0028 <dbl>, hash0029 <dbl>,
## #   hash0030 <dbl>, hash0031 <dbl>, hash0032 <dbl>, hash0033 <dbl>, ...
…
